<svg width="80" height="40" viewBox="0 0 80 40" fill="none" xmlns="http://www.w3.org/2000/svg">
<path fill-rule="evenodd" clip-rule="evenodd" d="M30.4914 0.409635C31.0358 -0.135805 31.9192 -0.136652 32.4647 0.407742L39.5901 7.51955C39.8524 7.7813 39.9998 8.13662 39.9998 8.50715C39.9998 8.87769 39.8524 9.233 39.5901 9.49476L32.4647 16.6066C31.9192 17.151 31.0358 17.1501 30.4914 16.6047C29.947 16.0592 29.9478 15.1757 30.4933 14.6314L35.2312 9.90251L24.3536 9.90253C23.583 9.90253 22.9583 9.27782 22.9583 8.50719C22.9583 7.73656 23.583 7.11184 24.3536 7.11184L35.2312 7.11181L30.4933 2.38295C29.9478 1.83856 29.947 0.955075 30.4914 0.409635ZM11.7481 5.09192C11.3494 4.74971 10.8392 4.56353 10.3125 4.5687L10.2988 4.56877H4.95542C4.65434 4.56914 4.3567 4.63204 4.08145 4.75338C3.80603 4.8748 3.55915 5.05205 3.35644 5.27369C3.15374 5.49531 2.99965 5.75647 2.90381 6.04047C2.80901 6.3214 2.77323 6.61869 2.79862 6.91387C3.36157 12.1868 5.16012 17.2536 8.04902 21.7045L8.05569 21.7148C10.6806 25.8377 14.1829 29.3334 18.3141 31.9536L18.325 31.9605C22.7643 34.8338 27.8165 36.6288 33.0765 37.2015C33.3738 37.2268 33.6732 37.1906 33.9558 37.0952C34.242 36.9986 34.5046 36.8435 34.7269 36.6399C34.9492 36.4364 35.1262 36.1889 35.2469 35.9134C35.3676 35.6379 35.4293 35.3404 35.428 35.04L35.428 35.0343V29.7005C35.428 29.6889 35.4282 29.6773 35.4285 29.6658C35.4416 29.1368 35.2595 28.621 34.9162 28.2166C34.574 27.8135 34.0953 27.549 33.5703 27.4737C31.7584 27.2347 29.9792 26.792 28.2668 26.1543L28.2636 26.1531C27.8754 26.0074 27.4533 25.9759 27.0476 26.0622C26.643 26.1484 26.2719 26.3481 25.9778 26.6374C25.9769 26.6382 25.9761 26.639 25.9753 26.6398L23.7185 28.8923C23.2745 29.3354 22.5895 29.4278 22.044 29.1183C17.3661 26.4634 13.4925 22.5974 10.8322 17.9277C10.5208 17.3812 10.6136 16.6938 11.0589 16.2494L13.318 13.9946C13.6079 13.7011 13.8075 13.3313 13.8934 12.9288C13.9797 12.5253 13.9482 12.1056 13.8027 11.7193L13.8015 11.7162C13.1624 10.0067 12.7188 8.23057 12.4792 6.42162C12.4047 5.90535 12.1453 5.43285 11.7481 5.09192ZM10.2925 1.77807C11.4922 1.76808 12.6553 2.19286 13.5657 2.97433C14.4781 3.75746 15.0745 4.84547 15.2431 6.03585L15.2449 6.04869C15.4566 7.65051 15.849 9.22333 16.4149 10.7372C16.7483 11.6232 16.8204 12.5862 16.6225 13.512C16.4246 14.4383 15.9648 15.2882 15.2981 15.9611L15.2926 15.9666L13.7996 17.4568C15.9966 20.9842 18.9783 23.9598 22.5134 26.1522L24.0149 24.6536C24.6891 23.9882 25.54 23.5299 26.4666 23.3327C27.3924 23.1356 28.3554 23.2073 29.2417 23.5394C30.7591 24.1045 32.3358 24.4964 33.9415 24.7078L33.954 24.7094C35.1575 24.8789 36.2572 25.4841 37.0437 26.4105C37.8262 27.3323 38.2442 28.5081 38.2187 29.7164V35.0315C38.2211 35.7204 38.0795 36.4021 37.8031 37.0332C37.5263 37.6651 37.1203 38.2321 36.6115 38.6981C36.1026 39.164 35.5021 39.5186 34.8483 39.7393C34.1945 39.96 33.5019 40.0419 32.8146 39.9799L32.7895 39.9774C27.0936 39.3597 21.6221 37.4176 16.8141 34.3069C12.3412 31.469 8.54846 27.6835 5.70485 23.2187C2.57683 18.3977 0.630031 12.909 0.0222905 7.19698L0.0201433 7.17518C-0.0418751 6.4902 0.0396947 5.79987 0.259609 5.14818C0.479521 4.49649 0.832919 3.89784 1.29715 3.39026C1.76137 2.88269 2.32623 2.47733 2.95569 2.19982C3.58514 1.92233 4.26548 1.77872 4.95341 1.77808L10.2925 1.77807Z" fill="#C89D66"/>
<path fill-rule="evenodd" clip-rule="evenodd" d="M70.4914 0.409635C71.0358 -0.135805 71.9192 -0.136652 72.4647 0.407742L79.5901 7.51955C79.8524 7.7813 79.9998 8.13662 79.9998 8.50715C79.9998 8.87769 79.8524 9.233 79.5901 9.49476L72.4647 16.6066C71.9192 17.151 71.0358 17.1501 70.4914 16.6047C69.947 16.0592 69.9478 15.1757 70.4933 14.6314L75.2312 9.90251L64.3536 9.90253C63.583 9.90253 62.9583 9.27782 62.9583 8.50719C62.9583 7.73656 63.583 7.11184 64.3536 7.11184L75.2312 7.11181L70.4933 2.38295C69.9478 1.83856 69.947 0.955075 70.4914 0.409635ZM51.7481 5.09192C51.3494 4.74971 50.8392 4.56353 50.3125 4.5687L50.2988 4.56877H44.9554C44.6543 4.56914 44.3567 4.63204 44.0815 4.75338C43.806 4.8748 43.5591 5.05205 43.3564 5.27369C43.1537 5.49531 42.9996 5.75647 42.9038 6.04047C42.809 6.3214 42.7732 6.61869 42.7986 6.91387C43.3616 12.1868 45.1601 17.2536 48.049 21.7045L48.0557 21.7148C50.6806 25.8377 54.1829 29.3334 58.3141 31.9536L58.325 31.9605C62.7643 34.8338 67.8165 36.6288 73.0765 37.2015C73.3738 37.2268 73.6732 37.1906 73.9558 37.0952C74.242 36.9986 74.5046 36.8435 74.7269 36.6399C74.9492 36.4364 75.1262 36.1889 75.2469 35.9134C75.3676 35.6379 75.4293 35.3404 75.428 35.04L75.428 35.0343V29.7005C75.428 29.6889 75.4282 29.6773 75.4285 29.6658C75.4416 29.1368 75.2595 28.621 74.9162 28.2166C74.574 27.8135 74.0953 27.549 73.5703 27.4737C71.7584 27.2347 69.9792 26.792 68.2668 26.1543L68.2636 26.1531C67.8754 26.0074 67.4533 25.9759 67.0476 26.0622C66.643 26.1484 66.2719 26.3481 65.9778 26.6374C65.9769 26.6382 65.9761 26.639 65.9753 26.6398L63.7185 28.8923C63.2745 29.3354 62.5895 29.4278 62.044 29.1183C57.3661 26.4634 53.4925 22.5974 50.8322 17.9277C50.5208 17.3812 50.6136 16.6938 51.0589 16.2494L53.318 13.9946C53.6079 13.7011 53.8075 13.3313 53.8934 12.9288C53.9797 12.5253 53.9482 12.1056 53.8027 11.7193L53.8015 11.7162C53.1624 10.0067 52.7188 8.23057 52.4792 6.42162C52.4047 5.90535 52.1453 5.43285 51.7481 5.09192ZM50.2925 1.77807C51.4922 1.76808 52.6553 2.19286 53.5657 2.97433C54.4781 3.75746 55.0745 4.84547 55.2431 6.03585L55.2449 6.04869C55.4566 7.65051 55.849 9.22333 56.4149 10.7372C56.7483 11.6232 56.8204 12.5862 56.6225 13.512C56.4246 14.4383 55.9648 15.2882 55.2981 15.9611L55.2926 15.9666L53.7996 17.4568C55.9966 20.9842 58.9783 23.9598 62.5134 26.1522L64.0149 24.6536C64.6891 23.9882 65.54 23.5299 66.4666 23.3327C67.3924 23.1356 68.3554 23.2073 69.2417 23.5394C70.7591 24.1045 72.3358 24.4964 73.9415 24.7078L73.954 24.7094C75.1575 24.8789 76.2572 25.4841 77.0437 26.4105C77.8262 27.3323 78.2442 28.5081 78.2187 29.7164V35.0315C78.2211 35.7204 78.0795 36.4021 77.8031 37.0332C77.5263 37.6651 77.1203 38.2321 76.6115 38.6981C76.1026 39.164 75.5021 39.5186 74.8483 39.7393C74.1945 39.96 73.5019 40.0419 72.8146 39.9799L72.7895 39.9774C67.0936 39.3597 61.6221 37.4176 56.8141 34.3069C52.3412 31.469 48.5485 27.6835 45.7049 23.2187C42.5768 18.3977 40.63 12.909 40.0223 7.19698L40.0201 7.17518C39.9581 6.4902 40.0397 5.79987 40.2596 5.14818C40.4795 4.49649 40.8329 3.89784 41.2971 3.39026C41.7614 2.88269 42.3262 2.47733 42.9557 2.19982C43.5851 1.92233 44.2655 1.77872 44.9534 1.77808L50.2925 1.77807Z" fill="white"/>
</svg>
