<svg width="18" height="20" viewBox="0 0 18 20" fill="none" xmlns="http://www.w3.org/2000/svg">
<path d="M15.2222 2.77777H2.77778C1.79594 2.77777 1 3.57371 1 4.55555V17C1 17.9818 1.79594 18.7778 2.77778 18.7778H15.2222C16.2041 18.7778 17 17.9818 17 17V4.55555C17 3.57371 16.2041 2.77777 15.2222 2.77777Z" stroke="#CBCBCB" stroke-width="2" stroke-linecap="round" stroke-linejoin="round"/>
<path d="M12.5557 1V4.55556" stroke="#CBCBCB" stroke-width="2" stroke-linecap="round" stroke-linejoin="round"/>
<path d="M5.44434 1V4.55556" stroke="#CBCBCB" stroke-width="2" stroke-linecap="round" stroke-linejoin="round"/>
<path d="M1 8.11108H17" stroke="#CBCBCB" stroke-width="2" stroke-linecap="round" stroke-linejoin="round"/>
</svg>
