<svg width="110" height="110" viewBox="0 0 110 110" fill="none" xmlns="http://www.w3.org/2000/svg">
<circle cx="55" cy="55" r="55" fill="#034979"/>
<path d="M45.1935 75.9997H37.8774C36.5838 75.9997 35.3432 75.4834 34.4286 74.5645C33.5139 73.6456 33 72.3993 33 71.0997V53.9498C33 52.6503 33.5139 51.4039 34.4286 50.485C35.3432 49.5661 36.5838 49.0499 37.8774 49.0499H45.1935M62.2644 44.1499V34.35C62.2644 32.4006 61.4936 30.5311 60.1215 29.1528C58.7495 27.7744 56.8886 27 54.9483 27L45.1935 49.0499V75.9997H72.702C73.8782 76.013 75.0197 75.5989 75.916 74.8335C76.8122 74.0681 77.403 73.0031 77.5794 71.8347L80.9448 49.7849C81.0509 49.0826 81.0037 48.3655 80.8066 47.6834C80.6095 47.0012 80.2671 46.3703 79.8031 45.8343C79.3392 45.2983 78.7648 44.87 78.1197 44.5792C77.4747 44.2883 76.7744 44.1418 76.0674 44.1499H62.2644Z" stroke="white" stroke-width="3.5" stroke-linecap="round" stroke-linejoin="round"/>
</svg>
